<svg xmlns="http://www.w3.org/2000/svg" xmlns:xlink="http://www.w3.org/1999/xlink" preserveAspectRatio="xMidYMid" width="102" height="96" viewBox="0 0 102 96">
  <defs>
    <style>
      .cls-1 {
        fill-rule: evenodd;
      }
    </style>
  </defs>
  <path d="M98.812,79.749 L54.187,79.749 L54.187,89.599 L74.386,89.599 C76.148,89.599 77.574,91.031 77.574,92.799 C77.574,94.568 76.148,96.000 74.386,96.000 L27.614,96.000 C25.852,96.000 24.426,94.568 24.426,92.799 C24.426,91.031 25.852,89.599 27.614,89.599 L47.812,89.599 L47.812,79.749 L3.187,79.749 C1.426,79.749 -0.000,78.318 -0.000,76.549 L-0.000,3.200 C-0.000,1.431 1.426,-0.000 3.187,-0.000 L98.812,-0.000 C100.574,-0.000 102.000,1.431 102.000,3.200 L102.000,76.549 C102.000,78.318 100.574,79.749 98.812,79.749 ZM95.625,6.400 L6.375,6.400 L6.375,51.284 L95.625,51.284 L95.625,6.400 ZM95.625,57.684 L6.375,57.684 L6.375,73.349 L95.625,73.349 L95.625,57.684 ZM51.000,62.850 C52.611,62.850 53.917,64.173 53.917,65.805 C53.917,67.436 52.611,68.759 51.000,68.759 C49.389,68.759 48.083,67.436 48.083,65.805 C48.083,64.173 49.389,62.850 51.000,62.850 Z" class="cls-1"/>
</svg>
